Package Report

-----------------------------------------------------------------------------
Document:
Name: SleepCycleGraph.ai
Color Mode: RGB color
Color Profile: none
Ruler Units: pixels
Artboard Dimensions: 1920 px x 1080 px
Show Images in Outline Mode: OFF
Highlight Substituted Fonts: OFF
Highlight Substituted Glyphs: OFF
Preserve Text Editability
Simulate Colored Paper: OFF

-----------------------------------------------------------------------------
Spot Color Objects:

-----------------------------------------------------------------------------
Missing Fonts:NONE

-----------------------------------------------------------------------------
Protected Fonts that were not packaged:NONE

-----------------------------------------------------------------------------
Fonts:
Helvetica Neue Light (TrueType)
Helvetica Neue (TrueType)
Helvetica Neue Medium (TrueType)

-----------------------------------------------------------------------------
Embedded Fonts:
NONE

-----------------------------------------------------------------------------
Missing Links:
NONE

-----------------------------------------------------------------------------
Linked Images:
NONE